<?xml version="1.0" encoding="utf-8"?>
<!-- Generator: Adobe Illustrator 22.1.0, SVG Export Plug-In . SVG Version: 6.00 Build 0)  -->
<svg version="1.1" id="Layer_1" xmlns="http://www.w3.org/2000/svg" xmlns:xlink="http://www.w3.org/1999/xlink" x="0px" y="0px"
	 viewBox="0 0 150.8 142.2" style="enable-background:new 0 0 150.8 142.2;" xml:space="preserve">
<style type="text/css">
	.st0{fill:#FFFFFF;}
</style>
<title>Artboard 4</title>
<path d="M780.8-48v853h-1527V-48H780.8 M781.8-49h-1529v855h1529V-49z"/>
<path class="st0" d="M0,49.8V28.3c0.2-0.7,0.3-1.5,0.5-2.2c1-6.1,3.8-11.7,8.1-16.2c5.6-6.1,13.4-9.6,21.6-9.8
	c6.2-0.2,12.4-0.3,18.6,0c9,0.4,16.3,4.5,22,11.4c1.4,1.8,2.6,3.7,4,5.7l3-2.9l72.9,72.9h-17.8v54.8c-0.5,0-0.9,0.1-1.3,0.1
	c-14.3,0-28.7,0-43,0c-1.2,0-1.4-0.4-1.3-1.5c0-11.2,0-22.4,0-33.6v-1.4H68.9v36.5H25c-2,0-1.8,0.2-1.8-1.9c0-17.2,0-34.4,0-51.6
	c0-1.2-0.3-1.5-1.5-1.5c-5.1,0.1-10.1,0-15.2,0c-0.4,0-0.8,0-1.7-0.1l12.5-12.3c-1.9-1.3-3.8-2.4-5.5-3.8
	C6.1,66.7,2.2,60.3,0.7,53.2L0,49.8z M3.7,39h0.2c0,2.5,0,5,0,7.5C3.8,52,5.4,57.4,8.5,62c5.2,7.6,12.5,11.8,21.7,12.2
	c6.1,0.2,12.2,0.1,18.2,0c4.9-0.1,9.7-1.7,13.8-4.6c7.5-5.3,11.7-12.6,11.9-21.8c0.2-5.7,0.2-11.4,0-17.1c-0.1-7.5-3.4-14.6-9-19.5
	c-4.3-4.1-10-6.6-15.9-7C43.8,3.8,38.3,4,32.8,3.9C25.1,3.8,18.3,6,12.6,11.3c-4.4,3.9-7.4,9.3-8.2,15.2C3.8,30.6,3.9,34.9,3.7,39z"
	/>
<path class="st0" d="M32.8,60.4L12.6,40.2l6.8-6.6l13.3,13.6l26.2-26.2l6.7,6.7L32.8,60.4z"/>
</svg>
