<?xml version="1.0" encoding="utf-8"?>
<!-- Generator: Adobe Illustrator 22.1.0, SVG Export Plug-In . SVG Version: 6.00 Build 0)  -->
<svg version="1.1" id="Layer_1" xmlns="http://www.w3.org/2000/svg" xmlns:xlink="http://www.w3.org/1999/xlink" x="0px" y="0px"
	 viewBox="0 0 233.2 115.7" style="enable-background:new 0 0 233.2 115.7;" xml:space="preserve">
<style type="text/css">
	.st0{fill:#FFFFFF;}
</style>
<title>Artboard 2</title>
<path d="M1363.2-81.8v853h-1527v-853L1363.2-81.8 M1364.2-82.8h-1529v855h1529V-82.8z"/>
<path class="st0" d="M111.4,93.5l-5.3-4l4.7-7.6l27.1,17L111,115.7l-4.9-7l4.7-4.4c-1.1-0.3-2.3-0.6-3.5-0.7
	c-23.3-0.5-46.4-2.5-68.8-8.9C29,92,19.8,88.2,11.3,83.3c-14.9-8.9-15-23.1-0.2-31.9c9.6-5.8,20.6-9.3,31.7-14.1
	c1.1,4.5,1.8,7,2.4,9.5c-8.3,3.1-16.4,5.4-23.6,9.2c-4.6,2.4-10.5,6.8-11.3,11.1c-1.2,6.4,6.2,9.1,11.3,11.6
	c21.6,10.2,44.8,12.9,68.2,14.8C96.6,94,103.6,93.5,111.4,93.5z"/>
<path class="st0" d="M128.6,20.5h-10.2c-0.1-1.4-0.2-2.7-0.4-4c-0.3-4-2.6-6.9-6.4-5.8c-2.3,0.6-5,3.9-5.4,6.2
	c-0.8,5-0.2,10.3-0.2,15.4c0.7,0.3,1.2,0.7,1.4,0.6c14.2-6.5,21.5-1.9,21.5,13.8c0,4.5,0.2,9-0.2,13.5c-0.8,10.5-7.1,16.6-16.8,16.6
	c-9.5,0-16-5.7-16.4-16.1c-0.6-15.1-0.6-30.2-0.1-45.3C95.8,5,103.3-0.6,113.8,0.1C123.5,0.7,128.9,8,128.6,20.5z M117.9,52.7
	L117.9,52.7c0.1-2.2,0.7-4.7-0.1-6.7c-0.9-2.4-2.8-4.4-4.3-6.5c-2.5,1.9-6.7,3.4-7.1,5.7c-1,5.3-1,10.7,0,16c0.3,2,3.8,5,5.8,4.9
	s4.5-3.1,5.4-5.4S117.9,55.4,117.9,52.7z"/>
<path class="st0" d="M170.8,38.3c0,7,0.2,14-0.1,20.9c-0.4,10.8-6.4,17.1-15.9,17.5c-10.1,0.4-16.9-5.4-17.4-16.5
	c-0.6-14.8-0.6-29.7-0.1-44.6c0.4-10.2,7.4-15.8,17.5-15.6c9.1,0.2,15.3,6.2,15.8,16C171.1,23.5,170.8,30.9,170.8,38.3L170.8,38.3z
	 M160.1,38.1c0-7,0.5-14-0.3-21c-0.3-2.4-3.4-5.9-5.8-6.5c-4.2-0.9-6.5,2.2-6.5,6.6c0,14,0,28,0,42c0,4.1,1.9,7.2,6.3,7.2
	s6.1-3.2,6.1-7.3C160.1,52.1,160.1,45.1,160.1,38.1z"/>
<path class="st0" d="M80,37c8,8,8.9,26.2,2.1,34.6c-6.5,7.9-20.4,6.3-25-3.3c-1.8-3.9-2.3-8.5-3.5-13.6h11c0.3,2.7,0.1,5.3,1.1,7.4
	c0.8,1.8,2.9,3.9,4.6,4s4.3-1.7,5.1-3.3c4.6-8.6,0-18.9-9.5-21.7v-7.9c8.7-4.3,11.1-8,9.2-16.4c-0.5-2.3-3.1-4.1-4.8-6.1
	c-1.8,1.9-3.5,3.9-5.1,6c-0.6,1-0.3,2.6-0.5,4.3h-9.7c-0.7-6.8,0.8-12.7,5.7-17.3c5.8-5.3,14.8-4.9,20.1,0.9
	c1.2,1.3,2.1,2.9,2.8,4.5C87,18.5,85.7,28.9,80,37z"/>
<path class="st0" d="M188.2,46.4c0.6-2.2,1.2-4.6,1.9-7.7c13.5,3.2,26.4,6.8,36.8,16.1c8.5,7.6,8.4,17.7-0.2,25.2
	c-4.1,3.5-8.7,6.3-13.6,8.5c-21.3,9.3-44,12.1-67.5,14.3l-0.9-8.5c12.8-2,25.3-3.1,37.5-6.1c11.6-2.7,22.8-6.6,33.6-11.7
	c11.2-5.4,11-12.5,0-18.4C207.2,53.5,197.9,50.4,188.2,46.4z"/>
<path class="st0" d="M203.5,13.6c0.5,7.2-4.9,13.4-12,13.9c-7.2,0.5-13.4-4.9-13.9-12c0-0.7,0-1.4,0-2c-0.5-7.2,4.9-13.4,12-13.9
	s13.4,4.9,13.9,12C203.6,12.2,203.6,12.9,203.5,13.6z M199.5,13.3c-4.3-2.8-6.9-5.7-9.2-5.6c-2.1,0.1-3.9,3.7-5.9,5.8
	c2.2,2,4.1,5.2,6.6,5.7C192.9,19.5,195.4,16.3,199.5,13.3L199.5,13.3z"/>
</svg>
